[{
        "start": {
            "dateTime": "2017-11-11T17:00:00.000Z"
        },
        "end": {
            "dateTime": "2017-11-11T18:00:00.000Z"
        },
        "summary": "title of the booking",
        "resourceId": "5a0c43d93237881400d15919",
        "description": "description of the booking - book 2 meeting rooms with 5 coffees each",
        "team": "5a1ec6b9825f901400025780",
        "timezone": "Europe/London",
        "plan": "59cb9e44c1798a14001ad350",
        "accountedUntil": null,
        "createdBy": "5a1ebb8ed75ffb140046daa8",
        "createdAt": "2017-11-29T16:11:49.879Z",
        "_id": "5a1edc45adae3a140069ca58",
        "extras": {
            "59cbbb2d863e7014004879b6": 5
        },
        "members": [],
        "visitors": [],
        "fees": [{
            "date": "2017-11-11T00:00:00.000Z",
            "fee": "5a1edc45adae3a140069ca46",
            "extraFees": [
                "5a1edc45adae3a140069ca47"
            ],
            "credits": []
        }]
    },
    {
        "start": {
            "dateTime": "2017-11-11T17:00:00.000Z"
        },
        "end": {
            "dateTime": "2017-11-11T18:00:00.000Z"
        },
        "summary": "title of the booking",
        "resourceId": "5a1eb96db7ca79140096c45b",
        "description": "description of the booking - book 2 meeting rooms with 5 coffees each",
        "team": "5a1ec6b9825f901400025780",
        "timezone": "Europe/London",
        "plan": "59cb9e44c1798a14001ad350",
        "accountedUntil": null,
        "createdBy": "5a1ebb8ed75ffb140046daa8",
        "createdAt": "2017-11-29T16:11:49.879Z",
        "_id": "5a1edc45adae3a140069ca59",
        "extras": {
            "59cbbb2d863e7014004879b6": 5
        },
        "members": [],
        "visitors": [],
        "fees": [{
            "date": "2017-11-11T00:00:00.000Z",
            "fee": "5a1edc45adae3a140069ca42",
            "extraFees": [
                "5a1edc45adae3a140069ca43"
            ],
            "credits": []
        }]
    },
    {
        "start": {
            "dateTime": "2017-11-11T17:00:00.000Z"
        },
        "end": {
            "dateTime": "2017-11-11T18:00:00.000Z"
        },
        "summary": "title of the booking",
        "resourceId": "59cba49cc1798a14001ada21",
        "description": "description of the booking - book 2 dedicated desks",
        "team": "5a1ec6b9825f901400025780",
        "timezone": "Europe/London",
        "accountedUntil": null,
        "createdBy": "5a1ebb8ed75ffb140046daa8",
        "createdAt": "2017-11-29T16:11:49.879Z",
        "_id": "5a1edc45adae3a140069ca5a",
        "members": [],
        "visitors": [],
        "fees": []
    },
    {
        "start": {
            "dateTime": "2017-11-11T17:00:00.000Z"
        },
        "end": {
            "dateTime": "2017-11-11T18:00:00.000Z"
        },
        "summary": "title of the booking",
        "resourceId": "59cba4a57de35214002d9fb9",
        "description": "description of the booking - book 2 dedicated desks",
        "team": "5a1ec6b9825f901400025780",
        "timezone": "Europe/London",
        "accountedUntil": null,
        "createdBy": "5a1ebb8ed75ffb140046daa8",
        "createdAt": "2017-11-29T16:11:49.879Z",
        "_id": "5a1edc45adae3a140069ca5b",
        "members": [],
        "visitors": [],
        "fees": []
    },
    {
        "start": {
            "dateTime": "2017-11-11T17:00:00.000Z"
        },
        "end": {
            "dateTime": "2017-11-11T18:00:00.000Z"
        },
        "summary": "title of the booking",
        "resourceId": "59cba4ae7de35214002d9fbc",
        "description": "description of the booking - book 2 hotdesks",
        "team": "5a1ec6b9825f901400025780",
        "timezone": "Europe/London",
        "accountedUntil": null,
        "createdBy": "5a1ebb8ed75ffb140046daa8",
        "createdAt": "2017-11-29T16:11:49.879Z",
        "_id": "5a1edc45adae3a140069ca5c",
        "members": [],
        "visitors": [],
        "fees": []
    },
    {
        "start": {
            "dateTime": "2017-11-11T17:00:00.000Z"
        },
        "end": {
            "dateTime": "2017-11-11T18:00:00.000Z"
        },
        "summary": "title of the booking",
        "resourceId": "59cba4b5c1798a14001ada25",
        "description": "description of the booking - book 2 hotdesks",
        "team": "5a1ec6b9825f901400025780",
        "timezone": "Europe/London",
        "plan": "5a1e90b10d8de714006d2e85",
        "accountedUntil": null,
        "createdBy": "5a1ebb8ed75ffb140046daa8",
        "createdAt": "2017-11-29T16:11:49.879Z",
        "_id": "5a1edc45adae3a140069ca5d",
        "members": [],
        "visitors": [],
        "fees": [{
            "date": "2017-11-11T00:00:00.000Z",
            "fee": "5a1edc45adae3a140069ca44",
            "extraFees": [],
            "credits": []
        }]
    },
    {
        "start": {
            "dateTime": "2017-11-11T17:00:00.000Z"
        },
        "end": {
            "dateTime": "2017-11-11T18:00:00.000Z"
        },
        "summary": "title of the booking",
        "resourceId": "5a1ec833825f9014000257db",
        "description": "description of the booking - book 2 phonebooths with only rates",
        "team": "5a1ec6b9825f901400025780",
        "timezone": "Europe/London",
        "plan": "59cba40ac1798a14001ada01",
        "accountedUntil": null,
        "createdBy": "5a1ebb8ed75ffb140046daa8",
        "createdAt": "2017-11-29T16:11:49.879Z",
        "_id": "5a1edc45adae3a140069ca5e",
        "members": [],
        "visitors": [],
        "fees": [{
            "date": "2017-11-11T00:00:00.000Z",
            "fee": "5a1edc45adae3a140069ca45",
            "extraFees": [],
            "credits": []
        }]
    },
    {
        "start": {
            "dateTime": "2017-11-11T17:00:00.000Z"
        },
        "end": {
            "dateTime": "2017-11-11T18:00:00.000Z"
        },
        "summary": "title of the booking",
        "resourceId": "5a1ec83fadae3a140069c8df",
        "description": "description of the booking - book 2 phonebooths with only rates",
        "team": "5a1ec6b9825f901400025780",
        "timezone": "Europe/London",
        "plan": "59cba40ac1798a14001ada01",
        "accountedUntil": null,
        "createdBy": "5a1ebb8ed75ffb140046daa8",
        "createdAt": "2017-11-29T16:11:49.879Z",
        "_id": "5a1edc45adae3a140069ca5f",
        "members": [],
        "visitors": [],
        "fees": [{
            "date": "2017-11-11T00:00:00.000Z",
            "fee": "5a1edc45adae3a140069ca49",
            "extraFees": [],
            "credits": []
        }]
    }
]